{
    "codigo": 0,
    "mensaje": "OK",
    "data": {
        "content": [
            {
                "id": 100001,
                "cantidad": 10,
                "horaInicio": "2024-05-20T15:30:36.97468",
                "horaTermino": "2024-05-21T11:12:58.143395",
                "exitos": 0,
                "fallas": 0,
                "horaInicioPeru": "2024-05-20T10:30:36.97468",
                "horaTerminoPeru": "2024-05-21T06:12:58.143395",
                "fechaCreacionPeru": "2024-05-20T10:30:36.983328",
                "usuarioCreacion": "string",
                "fechaCreacion": "2024-05-20T15:30:36.983328",
                "usuarioModificacion": "mbloqueosohpay",
                "fechaModificacion": "2024-05-21T16:12:58.425641"
            },
            {
                "id": 100002,
                "cantidad": 100,
                "horaInicio": "2024-05-20T15:30:51.720966",
                "horaTermino": "2024-05-21T11:13:01.50278",
                "exitos": 1,
                "fallas": 0,
                "horaInicioPeru": "2024-05-20T10:30:51.720966",
                "horaTerminoPeru": "2024-05-21T06:13:01.50278",
                "fechaCreacionPeru": "2024-05-20T10:30:51.726131",
                "usuarioCreacion": "pruebaok",
                "fechaCreacion": "2024-05-20T15:30:51.726131",
                "usuarioModificacion": "mbloqueosohpay",
                "fechaModificacion": "2024-05-21T16:13:01.517337"
            },
            {
                "id": 100003,
                "cantidad": 1,
                "horaInicio": "2024-05-20T18:45:57.857582",
                "horaTermino": "2024-05-21T11:13:04.367149",
                "exitos": 1,
                "fallas": 0,
                "horaInicioPeru": "2024-05-20T13:45:57.857582",
                "horaTerminoPeru": "2024-05-21T06:13:04.367149",
                "fechaCreacionPeru": "2024-05-20T13:45:57.87024",
                "usuarioCreacion": "HRCP.Eduardo.Gonzales@somosoh.pe",
                "fechaCreacion": "2024-05-20T18:45:57.870240",
                "usuarioModificacion": "mbloqueosohpay",
                "fechaModificacion": "2024-05-21T16:13:04.382786"
            },
            {
                "id": 100004,
                "cantidad": 100,
                "horaInicio": "2024-05-21T10:13:57.099563",
                "horaTermino": "2024-05-21T11:13:07.708879",
                "exitos": 0,
                "fallas": 0,
                "horaInicioPeru": "2024-05-21T05:13:57.099563",
                "horaTerminoPeru": "2024-05-21T06:13:07.708879",
                "fechaCreacionPeru": "2024-05-21T05:13:57.106055",
                "usuarioCreacion": "pruebaok",
                "fechaCreacion": "2024-05-21T10:13:57.106055",
                "usuarioModificacion": "mbloqueosohpay",
                "fechaModificacion": "2024-05-21T16:13:07.728450"
            },
            {
                "id": 100005,
                "cantidad": 1,
                "horaInicio": "2024-05-21T10:16:29.385032",
                "horaTermino": "2024-05-21T10:16:40.715878",
                "exitos": 1,
                "fallas": 0,
                "horaInicioPeru": "2024-05-21T05:16:29.385032",
                "horaTerminoPeru": "2024-05-21T05:16:40.715878",
                "fechaCreacionPeru": "2024-05-21T05:16:29.388797",
                "usuarioCreacion": "HRCP.Eduardo.Gonzales@somosoh.pe",
                "fechaCreacion": "2024-05-21T10:16:29.388797",
                "usuarioModificacion": "mbloqueosohpay",
                "fechaModificacion": "2024-05-21T15:16:40.857128"
            },
            {
                "id": 100006,
                "cantidad": 21,
                "horaInicio": "2024-05-21T15:30:15.312925",
                "horaTermino": "2024-05-21T15:30:27.774503",
                "exitos": 8,
                "fallas": 0,
                "horaInicioPeru": "2024-05-21T10:30:15.312925",
                "horaTerminoPeru": "2024-05-21T10:30:27.774503",
                "fechaCreacionPeru": "2024-05-21T10:30:15.392037",
                "usuarioCreacion": "HRCP.Eduardo.Gonzales@somosoh.pe",
                "fechaCreacion": "2024-05-21T15:30:15.392037",
                "usuarioModificacion": "mbloqueosohpay",
                "fechaModificacion": "2024-05-21T20:30:27.797574"
            },
            {
                "id": 100007,
                "cantidad": 8,
                "horaInicio": "2024-05-21T15:39:23.038485",
                "horaTermino": "2024-05-21T15:39:25.298524",
                "exitos": 0,
                "fallas": 0,
                "horaInicioPeru": "2024-05-21T10:39:23.038485",
                "horaTerminoPeru": "2024-05-21T10:39:25.298524",
                "fechaCreacionPeru": "2024-05-21T10:39:23.042991",
                "usuarioCreacion": "HRCP.Eduardo.Gonzales@somosoh.pe",
                "fechaCreacion": "2024-05-21T15:39:23.042991",
                "usuarioModificacion": "mbloqueosohpay",
                "fechaModificacion": "2024-05-21T20:39:25.311946"
            },
            {
                "id": 100008,
                "cantidad": 8,
                "horaInicio": "2024-05-22T13:49:04.578461",
                "horaTermino": "2024-05-22T13:49:18.260371",
                "exitos": 7,
                "fallas": 1,
                "horaInicioPeru": "2024-05-22T08:49:04.578461",
                "horaTerminoPeru": "2024-05-22T08:49:18.260371",
                "fechaCreacionPeru": "2024-05-22T08:49:04.598953",
                "usuarioCreacion": "HRCP.Eduardo.Gonzales@somosoh.pe",
                "fechaCreacion": "2024-05-22T13:49:04.598953",
                "usuarioModificacion": "mbloqueosohpay",
                "fechaModificacion": "2024-05-22T18:49:18.278395"
            },
            {
                "id": 100009,
                "cantidad": 21,
                "horaInicio": "2024-05-22T14:20:15.987479",
                "horaTermino": "2024-05-22T14:20:36.148156",
                "exitos": 9,
                "fallas": 12,
                "horaInicioPeru": "2024-05-22T09:20:15.987479",
                "horaTerminoPeru": "2024-05-22T09:20:36.148156",
                "fechaCreacionPeru": "2024-05-22T09:20:15.992989",
                "usuarioCreacion": "HRCP.Eduardo.Gonzales@somosoh.pe",
                "fechaCreacion": "2024-05-22T14:20:15.992989",
                "usuarioModificacion": "mbloqueosohpay",
                "fechaModificacion": "2024-05-22T19:20:36.184223"
            },
            {
                "id": 100010,
                "cantidad": 8,
                "horaInicio": "2024-05-22T15:37:49.236153",
                "horaTermino": "2024-05-22T15:37:55.876923",
                "exitos": 7,
                "fallas": 1,
                "horaInicioPeru": "2024-05-22T10:37:49.236153",
                "horaTerminoPeru": "2024-05-22T10:37:55.876923",
                "fechaCreacionPeru": "2024-05-22T10:37:49.240698",
                "usuarioCreacion": "HRCP.Eduardo.Gonzales@somosoh.pe",
                "fechaCreacion": "2024-05-22T15:37:49.240698",
                "usuarioModificacion": "mbloqueosohpay",
                "fechaModificacion": "2024-05-22T20:37:55.891078"
            },
            {
                "id": 100011,
                "cantidad": 21,
                "horaInicio": "2024-05-22T16:39:05.914446",
                "horaTermino": "2024-05-22T16:39:30.64893",
                "exitos": 19,
                "fallas": 2,
                "horaInicioPeru": "2024-05-22T11:39:05.914446",
                "horaTerminoPeru": "2024-05-22T11:39:30.64893",
                "fechaCreacionPeru": "2024-05-22T11:39:05.922147",
                "usuarioCreacion": "HRCP.Eduardo.Gonzales@somosoh.pe",
                "fechaCreacion": "2024-05-22T16:39:05.922147",
                "usuarioModificacion": "mbloqueosohpay",
                "fechaModificacion": "2024-05-22T21:39:30.661620"
            },
            {
                "id": 100012,
                "cantidad": 21,
                "horaInicio": "2024-05-27T14:29:29.10495",
                "horaTermino": "2024-05-27T14:30:02.901301",
                "exitos": 7,
                "fallas": 14,
                "horaInicioPeru": "2024-05-27T09:29:29.10495",
                "horaTerminoPeru": "2024-05-27T09:30:02.901301",
                "fechaCreacionPeru": "2024-05-27T09:29:29.123877",
                "usuarioCreacion": "HRCP.Eduardo.Gonzales@somosoh.pe",
                "fechaCreacion": "2024-05-27T14:29:29.123877",
                "usuarioModificacion": "mbloqueosohpay",
                "fechaModificacion": "2024-05-27T19:30:02.917875"
            },
            {
                "id": 100013,
                "cantidad": 21,
                "horaInicio": "2024-05-28T10:13:48.114176",
                "horaTermino": "2024-05-28T10:14:19.008408",
                "exitos": 19,
                "fallas": 2,
                "horaInicioPeru": "2024-05-28T05:13:48.114176",
                "horaTerminoPeru": "2024-05-28T05:14:19.008408",
                "fechaCreacionPeru": "2024-05-28T05:13:48.148651",
                "usuarioCreacion": "HRCP.Eduardo.Gonzales@somosoh.pe",
                "fechaCreacion": "2024-05-28T10:13:48.148651",
                "usuarioModificacion": "mbloqueosohpay",
                "fechaModificacion": "2024-05-28T15:14:19.024176"
            },
            {
                "id": 100014,
                "cantidad": 21,
                "horaInicio": "2024-06-18T17:21:13.350967",
                "horaTermino": "2024-06-18T17:21:51.880243",
                "exitos": 19,
                "fallas": 2,
                "horaInicioPeru": "2024-06-18T12:21:13.350967",
                "horaTerminoPeru": "2024-06-18T12:21:51.880243",
                "fechaCreacionPeru": "2024-06-18T12:21:13.893673",
                "usuarioCreacion": "HRCP.Bryan.Miyagui@somosoh.pe",
                "fechaCreacion": "2024-06-18T17:21:13.893673",
                "usuarioModificacion": "mbloqueosohpay",
                "fechaModificacion": "2024-06-18T22:21:52.024615"
            },
            {
                "id": 100015,
                "cantidad": 1,
                "horaInicio": "2024-06-20T18:08:01.196738",
                "horaTermino": "2024-06-20T18:08:04.188452",
                "exitos": 0,
                "fallas": 1,
                "horaInicioPeru": "2024-06-20T13:08:01.196738",
                "horaTerminoPeru": "2024-06-20T13:08:04.188452",
                "fechaCreacionPeru": "2024-06-20T13:08:01.207862",
                "usuarioCreacion": "HRCP.Bryan.Miyagui@somosoh.pe",
                "fechaCreacion": "2024-06-20T18:08:01.207862",
                "usuarioModificacion": "mbloqueosohpay",
                "fechaModificacion": "2024-06-20T23:08:04.211944"
            }
        ],
        "pageable": {
            "pageNumber": 0,
            "pageSize": 15,
            "sort": {
                "sorted": true,
                "empty": false,
                "unsorted": false
            },
            "offset": 0,
            "paged": true,
            "unpaged": false
        },
        "last": false,
        "totalElements": 89,
        "totalPages": 6,
        "first": true,
        "size": 15,
        "number": 0,
        "sort": {
            "sorted": true,
            "empty": false,
            "unsorted": false
        },
        "numberOfElements": 15,
        "empty": false
    }
}