{
    "codigo": 0,
    "mensaje": "OK",
    "data": {
        "content": [
            {
                "id": 1038,
                "idCabeceraBloqueo": 100009,
                "uidcliente": "d2faf0c7-37d1-4d44-86b5-9e683051ffd4",
                "uidCuenta": "ea8e10ef-89e5-40fb-8a0c-205891d23dda",
                "tokenTarjeta": "2306209000034110",
                "codigoBloqueo": "02",
                "motivoBloqueo": "10",
                "detalle": "Bloqueo de tarjeta",
                "huboError": true,
                "request": "BloqueoRequest(externalProcessId=4701, params=ParamBloqueo(idCabecera=100009, customerUid=d2faf0c7-37d1-4d44-86b5-9e683051ffd4, accountUid=ea8e10ef-89e5-40fb-8a0c-205891d23dda, status=02, reasonCode=10, token=2306209000034110, descripcion=Bloqueo de tarjeta), esBloqueoCuenta=false, descripcion=Bloqueo de tarjeta)",
                "response": "Response(data=ProcBloqueoTarjetaAbaResponse(cardId=null, accountId=null, token=null, lastDigits=null, bin=null, cardType=null, statusCode=null, statusReasonCode=null, statusCodeLast=null, statusReasonCodeLast=null, insertDate=null, updateDate=null))",
                "fechaCreacionPeru": "2024-05-22T14:20:36.070096",
                "usuarioCreacion": null,
                "fechaCreacion": "2024-05-22T19:20:36.070096",
                "usuarioModificacion": null,
                "fechaModificacion": null
            },
            {
                "id": 1021,
                "idCabeceraBloqueo": 100009,
                "uidcliente": "511a92e9-42cd-456e-844b-20e36fa943ec",
                "uidCuenta": "24fc6ad1-f804-4442-a896-3e3c256ed4f5",
                "tokenTarjeta": "",
                "codigoBloqueo": "03",
                "motivoBloqueo": "01",
                "detalle": "Bloqueo de cuenta por FRAUDE",
                "huboError": false,
                "request": "BloqueoRequest(externalProcessId=5847, params=ParamBloqueo(idCabecera=100009, customerUid=511a92e9-42cd-456e-844b-20e36fa943ec, accountUid=24fc6ad1-f804-4442-a896-3e3c256ed4f5, status=03, reasonCode=01, token=, descripcion=Bloqueo de cuenta por FRAUDE), esBloqueoCuenta=true, descripcion=Bloqueo de cuenta por FRAUDE)",
                "response": "Response(data=ProcBloqueoCuentaResponse(accountId=50595, accountUid=24fc6ad1-f804-4442-a896-3e3c256ed4f5, accountTypeCode=01, customerId=50597, accountNumber=410000505162, availableBalance=0.0, accountableBalance=0.0, retainedBalance=0.0, awaitingRetention=0.0, statusCode=03, reasonCode=01, statusCodeLast=null, reasonCodeLast=null, openingDate=2023-09-13T02:22:05, closingDate=2024-05-21T20:30:20, insertDate=2023-09-13T02:22:05, updateDate=2024-05-22T19:20:16))",
                "fechaCreacionPeru": "2024-05-22T14:20:21.472208",
                "usuarioCreacion": null,
                "fechaCreacion": "2024-05-22T19:20:21.472208",
                "usuarioModificacion": null,
                "fechaModificacion": null
            },
            {
                "id": 1022,
                "idCabeceraBloqueo": 100009,
                "uidcliente": "f450d9b5-258b-4522-b53e-13723ad7619c",
                "uidCuenta": "914bd2f9-e67a-4780-9d6b-f0aa2ca05b93",
                "tokenTarjeta": "",
                "codigoBloqueo": "02",
                "motivoBloqueo": "09",
                "detalle": "Bloqueo de cuenta por FRAUDE",
                "huboError": false,
                "request": "BloqueoRequest(externalProcessId=5848, params=ParamBloqueo(idCabecera=100009, customerUid=f450d9b5-258b-4522-b53e-13723ad7619c, accountUid=914bd2f9-e67a-4780-9d6b-f0aa2ca05b93, status=02, reasonCode=09, token=, descripcion=Bloqueo de cuenta por FRAUDE), esBloqueoCuenta=true, descripcion=Bloqueo de cuenta por FRAUDE)",
                "response": "Response(data=ProcBloqueoCuentaResponse(accountId=50596, accountUid=914bd2f9-e67a-4780-9d6b-f0aa2ca05b93, accountTypeCode=01, customerId=50598, accountNumber=410000505171, availableBalance=0.0, accountableBalance=0.0, retainedBalance=0.0, awaitingRetention=0.0, statusCode=02, reasonCode=09, statusCodeLast=null, reasonCodeLast=null, openingDate=2023-09-13T02:39:01, closingDate=2024-05-20T20:41:46, insertDate=2023-09-13T02:39:01, updateDate=2024-05-22T19:20:17))",
                "fechaCreacionPeru": "2024-05-22T14:20:21.473668",
                "usuarioCreacion": null,
                "fechaCreacion": "2024-05-22T19:20:21.473668",
                "usuarioModificacion": null,
                "fechaModificacion": null
            },
            {
                "id": 1023,
                "idCabeceraBloqueo": 100009,
                "uidcliente": "28073a82-46a6-4c55-8216-c2d398e3bb8f",
                "uidCuenta": "bab40be8-0686-4157-916c-44dbd4c3b490",
                "tokenTarjeta": "",
                "codigoBloqueo": "02",
                "motivoBloqueo": "09",
                "detalle": "Bloqueo de cuenta por FRAUDE",
                "huboError": false,
                "request": "BloqueoRequest(externalProcessId=5849, params=ParamBloqueo(idCabecera=100009, customerUid=28073a82-46a6-4c55-8216-c2d398e3bb8f, accountUid=bab40be8-0686-4157-916c-44dbd4c3b490, status=02, reasonCode=09, token=, descripcion=Bloqueo de cuenta por FRAUDE), esBloqueoCuenta=true, descripcion=Bloqueo de cuenta por FRAUDE)",
                "response": "Response(data=ProcBloqueoCuentaResponse(accountId=50605, accountUid=bab40be8-0686-4157-916c-44dbd4c3b490, accountTypeCode=01, customerId=50607, accountNumber=410000505260, availableBalance=0.0, accountableBalance=0.0, retainedBalance=0.0, awaitingRetention=0.0, statusCode=02, reasonCode=09, statusCodeLast=null, reasonCodeLast=null, openingDate=2023-09-13T21:37:05, closingDate=null, insertDate=2023-09-13T21:37:05, updateDate=2024-05-22T19:20:18))",
                "fechaCreacionPeru": "2024-05-22T14:20:21.474959",
                "usuarioCreacion": null,
                "fechaCreacion": "2024-05-22T19:20:21.474959",
                "usuarioModificacion": null,
                "fechaModificacion": null
            },
            {
                "id": 1024,
                "idCabeceraBloqueo": 100009,
                "uidcliente": "eae85945-77e3-4266-8cb6-eab4f19e1a16",
                "uidCuenta": "a5b43c53-64bc-4bde-a11e-445651b416a2",
                "tokenTarjeta": "",
                "codigoBloqueo": "02",
                "motivoBloqueo": "09",
                "detalle": "Bloqueo de cuenta por FRAUDE",
                "huboError": false,
                "request": "BloqueoRequest(externalProcessId=5850, params=ParamBloqueo(idCabecera=100009, customerUid=eae85945-77e3-4266-8cb6-eab4f19e1a16, accountUid=a5b43c53-64bc-4bde-a11e-445651b416a2, status=02, reasonCode=09, token=, descripcion=Bloqueo de cuenta por FRAUDE), esBloqueoCuenta=true, descripcion=Bloqueo de cuenta por FRAUDE)",
                "response": "Response(data=ProcBloqueoCuentaResponse(accountId=50609, accountUid=a5b43c53-64bc-4bde-a11e-445651b416a2, accountTypeCode=01, customerId=50611, accountNumber=410000505304, availableBalance=0.0, accountableBalance=0.0, retainedBalance=0.0, awaitingRetention=0.0, statusCode=02, reasonCode=09, statusCodeLast=null, reasonCodeLast=null, openingDate=2023-09-15T22:24:02, closingDate=null, insertDate=2023-09-15T22:24:02, updateDate=2024-05-22T19:20:18))",
                "fechaCreacionPeru": "2024-05-22T14:20:21.476222",
                "usuarioCreacion": null,
                "fechaCreacion": "2024-05-22T19:20:21.476222",
                "usuarioModificacion": null,
                "fechaModificacion": null
            },
            {
                "id": 1025,
                "idCabeceraBloqueo": 100009,
                "uidcliente": "32440e27-662e-4a40-8175-a1e37da0ebea",
                "uidCuenta": "8c0f768a-28d6-4735-905b-92b27c869f14",
                "tokenTarjeta": "",
                "codigoBloqueo": "02",
                "motivoBloqueo": "09",
                "detalle": "Bloqueo de cuenta por FRAUDE",
                "huboError": false,
                "request": "BloqueoRequest(externalProcessId=5851, params=ParamBloqueo(idCabecera=100009, customerUid=32440e27-662e-4a40-8175-a1e37da0ebea, accountUid=8c0f768a-28d6-4735-905b-92b27c869f14, status=02, reasonCode=09, token=, descripcion=Bloqueo de cuenta por FRAUDE), esBloqueoCuenta=true, descripcion=Bloqueo de cuenta por FRAUDE)",
                "response": "Response(data=ProcBloqueoCuentaResponse(accountId=50610, accountUid=8c0f768a-28d6-4735-905b-92b27c869f14, accountTypeCode=01, customerId=50612, accountNumber=410000505313, availableBalance=0.0, accountableBalance=0.0, retainedBalance=0.0, awaitingRetention=0.0, statusCode=02, reasonCode=09, statusCodeLast=null, reasonCodeLast=null, openingDate=2023-09-16T02:29, closingDate=null, insertDate=2023-09-16T02:29, updateDate=2024-05-22T19:20:19))",
                "fechaCreacionPeru": "2024-05-22T14:20:21.477469",
                "usuarioCreacion": null,
                "fechaCreacion": "2024-05-22T19:20:21.477469",
                "usuarioModificacion": null,
                "fechaModificacion": null
            },
            {
                "id": 1026,
                "idCabeceraBloqueo": 100009,
                "uidcliente": "d2faf0c7-37d1-4d44-86b5-9e683051ffd4",
                "uidCuenta": "ea8e10ef-89e5-40fb-8a0c-205891d23dda",
                "tokenTarjeta": "",
                "codigoBloqueo": "02",
                "motivoBloqueo": "09",
                "detalle": "Bloqueo de cuenta por FRAUDE",
                "huboError": false,
                "request": "BloqueoRequest(externalProcessId=5852, params=ParamBloqueo(idCabecera=100009, customerUid=d2faf0c7-37d1-4d44-86b5-9e683051ffd4, accountUid=ea8e10ef-89e5-40fb-8a0c-205891d23dda, status=02, reasonCode=09, token=, descripcion=Bloqueo de cuenta por FRAUDE), esBloqueoCuenta=true, descripcion=Bloqueo de cuenta por FRAUDE)",
                "response": "Response(data=ProcBloqueoCuentaResponse(accountId=50642, accountUid=ea8e10ef-89e5-40fb-8a0c-205891d23dda, accountTypeCode=01, customerId=50644, accountNumber=410000505634, availableBalance=0.0, accountableBalance=0.0, retainedBalance=0.0, awaitingRetention=0.0, statusCode=02, reasonCode=09, statusCodeLast=null, reasonCodeLast=null, openingDate=2023-09-19T20:48:58, closingDate=null, insertDate=2023-09-19T20:48:58, updateDate=2024-05-22T19:20:20))",
                "fechaCreacionPeru": "2024-05-22T14:20:21.478622",
                "usuarioCreacion": null,
                "fechaCreacion": "2024-05-22T19:20:21.478622",
                "usuarioModificacion": null,
                "fechaModificacion": null
            },
            {
                "id": 1027,
                "idCabeceraBloqueo": 100009,
                "uidcliente": "3feec5aa-baa9-4aa2-be20-5ae57c192bda",
                "uidCuenta": "fecb9a3c-854f-4395-a00d-e7717861890c",
                "tokenTarjeta": "",
                "codigoBloqueo": "02",
                "motivoBloqueo": "09",
                "detalle": "Bloqueo de cuenta por FRAUDE",
                "huboError": false,
                "request": "BloqueoRequest(externalProcessId=5853, params=ParamBloqueo(idCabecera=100009, customerUid=3feec5aa-baa9-4aa2-be20-5ae57c192bda, accountUid=fecb9a3c-854f-4395-a00d-e7717861890c, status=02, reasonCode=09, token=, descripcion=Bloqueo de cuenta por FRAUDE), esBloqueoCuenta=true, descripcion=Bloqueo de cuenta por FRAUDE)",
                "response": "Response(data=ProcBloqueoCuentaResponse(accountId=50645, accountUid=fecb9a3c-854f-4395-a00d-e7717861890c, accountTypeCode=01, customerId=50647, accountNumber=410000505661, availableBalance=0.0, accountableBalance=0.0, retainedBalance=0.0, awaitingRetention=0.0, statusCode=02, reasonCode=09, statusCodeLast=null, reasonCodeLast=null, openingDate=2023-09-19T21:36:35, closingDate=null, insertDate=2023-09-19T21:36:35, updateDate=2024-05-22T19:20:20))",
                "fechaCreacionPeru": "2024-05-22T14:20:21.479799",
                "usuarioCreacion": null,
                "fechaCreacion": "2024-05-22T19:20:21.479799",
                "usuarioModificacion": null,
                "fechaModificacion": null
            },
            {
                "id": 1028,
                "idCabeceraBloqueo": 100009,
                "uidcliente": "6100ea20-19dd-455b-af1f-2e5780e7fddf",
                "uidCuenta": "20b8ae6c-2952-45c8-b324-cac7ed12ad06",
                "tokenTarjeta": "",
                "codigoBloqueo": "02",
                "motivoBloqueo": "09",
                "detalle": "Bloqueo de cuenta por FRAUDE",
                "huboError": false,
                "request": "BloqueoRequest(externalProcessId=5854, params=ParamBloqueo(idCabecera=100009, customerUid=6100ea20-19dd-455b-af1f-2e5780e7fddf, accountUid=20b8ae6c-2952-45c8-b324-cac7ed12ad06, status=02, reasonCode=09, token=, descripcion=Bloqueo de cuenta por FRAUDE), esBloqueoCuenta=true, descripcion=Bloqueo de cuenta por FRAUDE)",
                "response": "Response(data=ProcBloqueoCuentaResponse(accountId=50672, accountUid=20b8ae6c-2952-45c8-b324-cac7ed12ad06, accountTypeCode=01, customerId=50674, accountNumber=410000505938, availableBalance=0.0, accountableBalance=0.0, retainedBalance=0.0, awaitingRetention=0.0, statusCode=02, reasonCode=09, statusCodeLast=null, reasonCodeLast=null, openingDate=2023-09-20T19:25:03, closingDate=2024-05-22T14:07:20, insertDate=2023-09-20T19:25:03, updateDate=2024-05-22T19:20:21))",
                "fechaCreacionPeru": "2024-05-22T14:20:21.480868",
                "usuarioCreacion": null,
                "fechaCreacion": "2024-05-22T19:20:21.480868",
                "usuarioModificacion": null,
                "fechaModificacion": null
            },
            {
                "id": 1029,
                "idCabeceraBloqueo": 100009,
                "uidcliente": "511a92e9-42cd-456e-844b-20e36fa943ec",
                "uidCuenta": "24fc6ad1-f804-4442-a896-3e3c256ed4f5",
                "tokenTarjeta": "2309119000039950",
                "codigoBloqueo": "02",
                "motivoBloqueo": "10",
                "detalle": "Bloqueo de tarjeta",
                "huboError": true,
                "request": "BloqueoRequest(externalProcessId=4692, params=ParamBloqueo(idCabecera=100009, customerUid=511a92e9-42cd-456e-844b-20e36fa943ec, accountUid=24fc6ad1-f804-4442-a896-3e3c256ed4f5, status=02, reasonCode=10, token=2309119000039950, descripcion=Bloqueo de tarjeta), esBloqueoCuenta=false, descripcion=Bloqueo de tarjeta)",
                "response": "Response(data=ProcBloqueoTarjetaAbaResponse(cardId=null, accountId=null, token=null, lastDigits=null, bin=null, cardType=null, statusCode=null, statusReasonCode=null, statusCodeLast=null, statusReasonCodeLast=null, insertDate=null, updateDate=null))",
                "fechaCreacionPeru": "2024-05-22T14:20:36.017016",
                "usuarioCreacion": null,
                "fechaCreacion": "2024-05-22T19:20:36.017016",
                "usuarioModificacion": null,
                "fechaModificacion": null
            },
            {
                "id": 1030,
                "idCabeceraBloqueo": 100009,
                "uidcliente": "f450d9b5-258b-4522-b53e-13723ad7619c",
                "uidCuenta": "914bd2f9-e67a-4780-9d6b-f0aa2ca05b93",
                "tokenTarjeta": "2309119000039950",
                "codigoBloqueo": "02",
                "motivoBloqueo": "11",
                "detalle": "Bloqueo de tarjeta",
                "huboError": true,
                "request": "BloqueoRequest(externalProcessId=4693, params=ParamBloqueo(idCabecera=100009, customerUid=f450d9b5-258b-4522-b53e-13723ad7619c, accountUid=914bd2f9-e67a-4780-9d6b-f0aa2ca05b93, status=02, reasonCode=11, token=2309119000039950, descripcion=Bloqueo de tarjeta), esBloqueoCuenta=false, descripcion=Bloqueo de tarjeta)",
                "response": "Response(data=ProcBloqueoTarjetaAbaResponse(cardId=null, accountId=null, token=null, lastDigits=null, bin=null, cardType=null, statusCode=null, statusReasonCode=null, statusCodeLast=null, statusReasonCodeLast=null, insertDate=null, updateDate=null))",
                "fechaCreacionPeru": "2024-05-22T14:20:36.018552",
                "usuarioCreacion": null,
                "fechaCreacion": "2024-05-22T19:20:36.018552",
                "usuarioModificacion": null,
                "fechaModificacion": null
            },
            {
                "id": 1031,
                "idCabeceraBloqueo": 100009,
                "uidcliente": "f450d9b5-258b-4522-b53e-13723ad7619c",
                "uidCuenta": "914bd2f9-e67a-4780-9d6b-f0aa2ca05b93",
                "tokenTarjeta": "2309119000039950",
                "codigoBloqueo": "02",
                "motivoBloqueo": "10",
                "detalle": "Bloqueo de tarjeta",
                "huboError": true,
                "request": "BloqueoRequest(externalProcessId=4694, params=ParamBloqueo(idCabecera=100009, customerUid=f450d9b5-258b-4522-b53e-13723ad7619c, accountUid=914bd2f9-e67a-4780-9d6b-f0aa2ca05b93, status=02, reasonCode=10, token=2309119000039950, descripcion=Bloqueo de tarjeta), esBloqueoCuenta=false, descripcion=Bloqueo de tarjeta)",
                "response": "Response(data=ProcBloqueoTarjetaAbaResponse(cardId=null, accountId=null, token=null, lastDigits=null, bin=null, cardType=null, statusCode=null, statusReasonCode=null, statusCodeLast=null, statusReasonCodeLast=null, insertDate=null, updateDate=null))",
                "fechaCreacionPeru": "2024-05-22T14:20:36.019965",
                "usuarioCreacion": null,
                "fechaCreacion": "2024-05-22T19:20:36.019965",
                "usuarioModificacion": null,
                "fechaModificacion": null
            },
            {
                "id": 1032,
                "idCabeceraBloqueo": 100009,
                "uidcliente": "28073a82-46a6-4c55-8216-c2d398e3bb8f",
                "uidCuenta": "bab40be8-0686-4157-916c-44dbd4c3b490",
                "tokenTarjeta": "2309119000039950",
                "codigoBloqueo": "02",
                "motivoBloqueo": "11",
                "detalle": "Bloqueo de tarjeta",
                "huboError": true,
                "request": "BloqueoRequest(externalProcessId=4695, params=ParamBloqueo(idCabecera=100009, customerUid=28073a82-46a6-4c55-8216-c2d398e3bb8f, accountUid=bab40be8-0686-4157-916c-44dbd4c3b490, status=02, reasonCode=11, token=2309119000039950, descripcion=Bloqueo de tarjeta), esBloqueoCuenta=false, descripcion=Bloqueo de tarjeta)",
                "response": "Response(data=ProcBloqueoTarjetaAbaResponse(cardId=null, accountId=null, token=null, lastDigits=null, bin=null, cardType=null, statusCode=null, statusReasonCode=null, statusCodeLast=null, statusReasonCodeLast=null, insertDate=null, updateDate=null))",
                "fechaCreacionPeru": "2024-05-22T14:20:36.021144",
                "usuarioCreacion": null,
                "fechaCreacion": "2024-05-22T19:20:36.021144",
                "usuarioModificacion": null,
                "fechaModificacion": null
            },
            {
                "id": 1033,
                "idCabeceraBloqueo": 100009,
                "uidcliente": "eae85945-77e3-4266-8cb6-eab4f19e1a16",
                "uidCuenta": "a5b43c53-64bc-4bde-a11e-445651b416a2",
                "tokenTarjeta": "2306209000034110",
                "codigoBloqueo": "02",
                "motivoBloqueo": "11",
                "detalle": "Bloqueo de tarjeta",
                "huboError": true,
                "request": "BloqueoRequest(externalProcessId=4696, params=ParamBloqueo(idCabecera=100009, customerUid=eae85945-77e3-4266-8cb6-eab4f19e1a16, accountUid=a5b43c53-64bc-4bde-a11e-445651b416a2, status=02, reasonCode=11, token=2306209000034110, descripcion=Bloqueo de tarjeta), esBloqueoCuenta=false, descripcion=Bloqueo de tarjeta)",
                "response": "Response(data=ProcBloqueoTarjetaAbaResponse(cardId=null, accountId=null, token=null, lastDigits=null, bin=null, cardType=null, statusCode=null, statusReasonCode=null, statusCodeLast=null, statusReasonCodeLast=null, insertDate=null, updateDate=null))",
                "fechaCreacionPeru": "2024-05-22T14:20:36.023039",
                "usuarioCreacion": null,
                "fechaCreacion": "2024-05-22T19:20:36.023039",
                "usuarioModificacion": null,
                "fechaModificacion": null
            },
            {
                "id": 1034,
                "idCabeceraBloqueo": 100009,
                "uidcliente": "eae85945-77e3-4266-8cb6-eab4f19e1a16",
                "uidCuenta": "a5b43c53-64bc-4bde-a11e-445651b416a2",
                "tokenTarjeta": "2309149000039960",
                "codigoBloqueo": "02",
                "motivoBloqueo": "10",
                "detalle": "Bloqueo de tarjeta",
                "huboError": true,
                "request": "BloqueoRequest(externalProcessId=4697, params=ParamBloqueo(idCabecera=100009, customerUid=eae85945-77e3-4266-8cb6-eab4f19e1a16, accountUid=a5b43c53-64bc-4bde-a11e-445651b416a2, status=02, reasonCode=10, token=2309149000039960, descripcion=Bloqueo de tarjeta), esBloqueoCuenta=false, descripcion=Bloqueo de tarjeta)",
                "response": "Response(data=ProcBloqueoTarjetaAbaResponse(cardId=null, accountId=null, token=null, lastDigits=null, bin=null, cardType=null, statusCode=null, statusReasonCode=null, statusCodeLast=null, statusReasonCodeLast=null, insertDate=null, updateDate=null))",
                "fechaCreacionPeru": "2024-05-22T14:20:36.024169",
                "usuarioCreacion": null,
                "fechaCreacion": "2024-05-22T19:20:36.024169",
                "usuarioModificacion": null,
                "fechaModificacion": null
            }
        ],
        "pageable": {
            "pageNumber": 0,
            "pageSize": 15,
            "sort": {
                "sorted": false,
                "empty": true,
                "unsorted": true
            },
            "offset": 0,
            "paged": true,
            "unpaged": false
        },
        "last": false,
        "totalElements": 21,
        "totalPages": 2,
        "first": true,
        "size": 15,
        "number": 0,
        "sort": {
            "sorted": false,
            "empty": true,
            "unsorted": true
        },
        "numberOfElements": 15,
        "empty": false
    }
}